{
    "package": "WII7800",
    "info": {
        "title": "Wii7800",
        "author": "raz0red",
        "category": "emu",
        "version": "0.4",
        "url": "https://www.github.com/raz0red/WII7800",
        "license": "GPL2",
        "description": "Atari 7800 Emulator",
        "details": "Wii7800 is a port of the ProSystem emulator developed by Greg Stanton."
    },
    "changelog": "",
    "assets": [
        {
            "url": "https://github.com/raz0red/wii7800/releases/download/0.4/wii7800-0_4.zip",
            "type": "zip",
            "zip": [
                {
                    "path": "/APPS/**",
                    "dest": "/apps",
                    "type": "update"
                },
                {
                    "path": "/WII7800/**",
                    "dest": "/WII7800",
                    "type": "update"
                }
            ]
        },
        {
            "url": "icon.png",
            "type": "icon"
        },
        {
            "url": "screen.png",
            "type": "screenshot"
        }
    ]
}