{
    "package": "WiiEarth",
    "info": {
        "title": "WiiEarth",
        "author": "PaulWagener",
        "category": "tool",
        "version": "2.3",
        "url": "https://www.github.com/PaulWagener/WiiEarth",
        "license": "WTFPL",
        "description": "Browse the world",
        "details": "Use the Wiimote to browse through satellite imagery"
    },
    "changelog": "",
    "assets": [
        {
            "url": "https://github.com/PaulWagener/WiiEarth/blob/master/WiiEarth/WiiEarth.zip?raw=true",
            "type": "zip",
            "zip": [
                {
                    "path": "/**",
                    "dest": "/",
                    "type": "update"
                }
            ]
        },
        {
            "url": "icon.png",
            "type": "icon"
        },
        {
            "url": "screen.png",
            "type": "screenshot"
        }
    ]
}