{
    "package": "vbagx",
    "info": {
        "title": "Visual Boy Advance GX",
        "author": "Tantric",
        "category": "emu",
        "version": "2.4.0",
        "url": "https://github.com/dborth/vbagx",
        "license": "GPL",
        "description": "GBA/GBC/GB Emulator",
        "details": "A port of Visual Boy Advance - M to the Wii."
    },
    "changelog": "",
    "assets": [
        {
            "url": "https://github.com/dborth/vbagx/releases/download/2.4.0/VisualBoyAdvanceGX-2.4.0.zip",
            "type": "zip",
            "zip": [
                {
                    "path": "/**",
                    "dest": "/",
                    "type": "update"
                }
            ]
        },
        {
            "url": "icon.png",
            "type": "icon"
        },
        {
            "url": "screen.png",
            "type": "screenshot"
        }
    ]
}